<svg xmlns="http://www.w3.org/2000/svg" xmlns:xlink="http://www.w3.org/1999/xlink" width="123.039" height="42.778" viewBox="0 0 123.039 42.778">
  <defs>
    <clipPath id="clip-path">
      <rect id="Rectangle_6" data-name="Rectangle 6" width="123.039" height="42.778" fill="none"/>
    </clipPath>
  </defs>
  <g id="Vector_Smart_Object" data-name="Vector Smart Object" transform="translate(61.52 21.389)">
    <g id="Group_3" data-name="Group 3" transform="translate(-61.52 -21.389)" clip-path="url(#clip-path)">
      <path id="Path_45" data-name="Path 45" d="M16.52,39.391a2.791,2.791,0,0,1-2.791,2.791h-5.4A8.124,8.124,0,0,1,2.38,39.7a8.236,8.236,0,0,1,0-11.783A8.062,8.062,0,0,1,8.272,25.5h5.4a2.729,2.729,0,0,1,1.985.806,2.791,2.791,0,0,1-1.985,4.775H8.334a2.729,2.729,0,0,0-1.985.806,2.6,2.6,0,0,0-.806,1.922,2.753,2.753,0,0,0,2.729,2.729h5.4a2.729,2.729,0,0,1,1.985.806,2.667,2.667,0,0,1,.868,1.985" transform="translate(0.038 -9.685)" fill="#3491d1"/>
      <path id="Path_46" data-name="Path 46" d="M34.343,31.49v9.116A2.791,2.791,0,0,1,31.553,43.4a2.729,2.729,0,0,1-1.985-.868,2.667,2.667,0,0,1-.868-1.985V31.49A2.791,2.791,0,0,1,31.491,28.7a2.729,2.729,0,0,1,1.985.806,2.667,2.667,0,0,1,.806,1.985" transform="translate(-10.901 -10.901)" fill="#3491d1"/>
      <path id="Path_47" data-name="Path 47" d="M51.945,35.935a2.791,2.791,0,0,1-2.791,2.791h-.682A8.372,8.372,0,0,1,40.1,30.353V19.19a2.667,2.667,0,0,1,.868-1.985,2.729,2.729,0,0,1,1.985-.806,2.791,2.791,0,0,1,2.791,2.791v2.791h3.473A2.791,2.791,0,0,1,51.2,26.756a2.667,2.667,0,0,1-1.985.806H45.681v2.791a2.791,2.791,0,0,0,2.791,2.791h.744a2.791,2.791,0,0,1,2.791,2.791" transform="translate(-15.232 -6.229)" fill="#3491d1"/>
      <path id="Path_48" data-name="Path 48" d="M78.244,34.268a8.248,8.248,0,0,1-1.488,4.775,8.062,8.062,0,0,1-4.031,3.039v2.791a2.791,2.791,0,0,1-5.581,0V42.144a8.248,8.248,0,0,1-4.093-3.1,8.062,8.062,0,0,1-1.55-4.775V28.19a2.791,2.791,0,1,1,5.581,0v6.078A2.791,2.791,0,0,0,69.872,37a2.6,2.6,0,0,0,1.922-.806,2.667,2.667,0,0,0,.806-1.985V28.19A2.791,2.791,0,0,1,75.391,25.4a2.729,2.729,0,0,1,1.985.806,2.667,2.667,0,0,1,.868,1.985Z" transform="translate(-23.36 -9.648)" fill="#3491d1"/>
      <path id="Path_49" data-name="Path 49" d="M107.12,39.391a2.791,2.791,0,0,1-2.791,2.791h-5.4A8.372,8.372,0,0,1,90.5,33.809a8.364,8.364,0,0,1,8.372-8.31h5.4a2.729,2.729,0,0,1,1.984.806,2.791,2.791,0,0,1-1.984,4.775h-5.4a2.729,2.729,0,0,0-1.984.806,2.6,2.6,0,0,0-.806,1.922A2.791,2.791,0,0,0,98.872,36.6h5.4a2.729,2.729,0,0,1,1.984.806,2.667,2.667,0,0,1,.868,1.985" transform="translate(-34.375 -9.685)" fill="#7bb12d"/>
      <path id="Path_50" data-name="Path 50" d="M134.3,38.417a7.318,7.318,0,0,1-.372-2.171c0-.806,0-1.488,0-2.109V31.781a8.806,8.806,0,0,0-.62-3.659,4.217,4.217,0,0,0-2.295-2.109,11.411,11.411,0,0,0-4.217-.62,10.791,10.791,0,0,0-4.031.682,5.705,5.705,0,0,0-2.481,1.736,3.721,3.721,0,0,0-.806,2.233,1.8,1.8,0,0,0,.62,1.426,2.109,2.109,0,0,0,1.426.558,1.612,1.612,0,0,0,1.3-.434l.806-1.116a3.225,3.225,0,0,1,1.116-1.116,4.4,4.4,0,0,1,2.047-.372c.992,0,1.674.186,1.922.558a3.287,3.287,0,0,1,.5,1.674l-1.922.5-2.481.558-1.86.372a5.581,5.581,0,0,0-3.039,1.612A4.4,4.4,0,0,0,118.8,37.3a4.589,4.589,0,0,0,.682,2.419,4.837,4.837,0,0,0,1.922,1.736,6.078,6.078,0,0,0,2.853.62,8.186,8.186,0,0,0,3.163-.558,12.093,12.093,0,0,0,2.481-1.426,7.63,7.63,0,0,0,1.054,1.3,2.171,2.171,0,0,0,1.488.682,2.3,2.3,0,0,0,1.55-.62,1.86,1.86,0,0,0,.744-1.426,6.45,6.45,0,0,0-.372-1.674m-8.682.248a2.046,2.046,0,0,1-1.488-.5,1.55,1.55,0,0,1-.558-1.178,1.24,1.24,0,0,1,.434-.992,2.6,2.6,0,0,1,1.054-.558l2.233-.5,1.984-.5a5.52,5.52,0,0,1-.5,2.667,2.977,2.977,0,0,1-1.24,1.116,4.155,4.155,0,0,1-1.922.434" transform="translate(-45.125 -9.642)" fill="#7bb12d"/>
      <path id="Path_51" data-name="Path 51" d="M160.681,36.662a5.4,5.4,0,0,1-.806,2.977,5.085,5.085,0,0,1-2.419,1.922,10.109,10.109,0,0,1-3.721.62,8.806,8.806,0,0,1-3.6-.682,5.457,5.457,0,0,1-2.295-1.736,3.783,3.783,0,0,1-.744-2.171,1.984,1.984,0,0,1,.558-1.426,1.86,1.86,0,0,1,1.426-.558,1.674,1.674,0,0,1,1.178.434,3.6,3.6,0,0,1,.682.93,3.845,3.845,0,0,0,1.24,1.426,3.659,3.659,0,0,0,1.985.434,2.667,2.667,0,0,0,1.612-.434,1.054,1.054,0,0,0,.558-.868,1.178,1.178,0,0,0-.558-1.116,8.744,8.744,0,0,0-2.357-.868,20.342,20.342,0,0,1-3.225-1.054,5.581,5.581,0,0,1-2.109-1.55,3.845,3.845,0,0,1-.806-2.481,4.527,4.527,0,0,1,.744-2.481,5.085,5.085,0,0,1,2.171-1.8,7.752,7.752,0,0,1,3.349-.682,10.481,10.481,0,0,1,2.729.31,6.822,6.822,0,0,1,2.047.868,4.527,4.527,0,0,1,1.3,1.3,2.791,2.791,0,0,1,.5,1.488,1.922,1.922,0,0,1-.558,1.426,2.046,2.046,0,0,1-1.488.558,1.86,1.86,0,0,1-1.24-.434,6.883,6.883,0,0,1-.992-1.116,3.1,3.1,0,0,0-.868-.806,2.667,2.667,0,0,0-1.364-.31,2.6,2.6,0,0,0-1.488.372.868.868,0,0,0-.5.744.806.806,0,0,0,.31.682,3.535,3.535,0,0,0,1.178.558l2.295.62a12.465,12.465,0,0,1,2.915,1.116,5.209,5.209,0,0,1,1.8,1.55,3.783,3.783,0,0,1,.62,2.171" transform="translate(-55.875 -9.685)" fill="#7bb12d"/>
      <path id="Path_52" data-name="Path 52" d="M188.144,35.935a2.791,2.791,0,1,1-5.581,0V30.354a2.667,2.667,0,0,0-.806-1.985,2.791,2.791,0,0,0-4.713,1.985v5.581a2.791,2.791,0,0,1-2.791,2.791,2.729,2.729,0,0,1-1.984-.806,2.667,2.667,0,0,1-.868-1.984V19.191a2.791,2.791,0,0,1,5.581,0v3.287a8.744,8.744,0,0,1,2.791-.434,8.372,8.372,0,0,1,8.372,8.372Z" transform="translate(-65.105 -6.229)" fill="#7bb12d"/>
      <path id="Path_53" data-name="Path 53" d="M34.922,13.871a1.116,1.116,0,0,1-.62.93h-.248l-.5-.186a4.2,4.2,0,0,0-5.705,0l-.5.186a.806.806,0,0,1-.62-.31,1.24,1.24,0,0,1,.124-1.674,5.765,5.765,0,0,1,7.628,0,1.116,1.116,0,0,1,.372,1.054" transform="translate(-10.054 -4.321)" fill="#7bb12d"/>
      <path id="Path_54" data-name="Path 54" d="M36.073,9.6a1.054,1.054,0,0,1-.62.806h-.186a.744.744,0,0,1-.5-.186q-5.581-4.93-11.721,0a.744.744,0,0,1-.744.124,1.116,1.116,0,0,1-.62-.868,1.178,1.178,0,0,1,.372-1.116c4.713-3.783,9.426-3.783,13.705,0a1.24,1.24,0,0,1,.372,1.178" transform="translate(-8.228 -2.099)" fill="#7bb12d"/>
      <path id="Path_55" data-name="Path 55" d="M37.117,4.966a1.054,1.054,0,0,1-.62.806H36.31a.744.744,0,0,1-.5-.186c-5.023-4.527-11.845-4.527-17.364,0a.682.682,0,0,1-.744.124,1.116,1.116,0,0,1-.62-.868,1.178,1.178,0,0,1,.372-1.116c6.14-4.961,13.767-4.961,19.349.062a1.24,1.24,0,0,1,.31,1.178" transform="translate(-6.481 -0.005)" fill="#7bb12d"/>
      <path id="Path_56" data-name="Path 56" d="M34.454,19.977A2.977,2.977,0,1,1,31.477,17a2.977,2.977,0,0,1,2.977,2.977" transform="translate(-10.826 -6.457)" fill="#7bb12d"/>
      <path id="Path_57" data-name="Path 57" d="M178.151,58.356c-.992-.124-1.985,0-2.977-.062s-.31.186-.372.372l-1.3,6.14c.868.124.868.124,1.054-.682a12.477,12.477,0,0,0,.31-1.426.434.434,0,0,1,.558-.434,10.667,10.667,0,0,0,2.357-.062,2.171,2.171,0,0,0,1.736-1.488,1.55,1.55,0,0,0-1.364-2.295m.5,1.985a1.426,1.426,0,0,1-1.178.992h-1.178c-1.116,0-1.116,0-.93-1.054s.31-1.24,1.55-1.24h.93a.806.806,0,0,1,.806,1.24" transform="translate(-65.903 -22.139)" fill="#292828"/>
      <path id="Path_58" data-name="Path 58" d="M134.528,58.536c-.062.248,0,.62-.434.558h-1.3c-.434-.062-.558.124-.682.558l-.992,4.775a.682.682,0,0,1-.93.434c-.186-.124-.062-.31-.062-.434.31-1.55.682-3.1,1.054-4.713.124-.434.062-.62-.434-.558h-1.116c-.186,0-.5.124-.434-.248s0-.62.434-.62h4.465c.186,0,.5-.124.434.248" transform="translate(-49.071 -22.133)" fill="#292828"/>
      <path id="Path_59" data-name="Path 59" d="M164.565,60.859a2.729,2.729,0,0,0-2.667,2.853,2.109,2.109,0,0,0,2.109,2.171,2.791,2.791,0,0,0,2.667-2.853,1.984,1.984,0,0,0-2.109-2.233m.31,4.217a1.488,1.488,0,0,1-2.295-1.364,2.153,2.153,0,0,1,1.8-2.295,1.426,1.426,0,0,1,1.55,1.178,2.481,2.481,0,0,1-1.116,2.481" transform="translate(-61.495 -23.091)" fill="#292828"/>
      <path id="Path_60" data-name="Path 60" d="M148.173,60.924a19.163,19.163,0,0,0-2.357-.062c-.248,0-.248.186-.31.372l-.868,4.031c-.062.124-.248.434.124.434s.5,0,.5-.372a11.87,11.87,0,0,1,.248-1.3c.062-.434.186-.372.434-.372a7.38,7.38,0,0,0,1.86-.124,1.612,1.612,0,0,0,1.3-1.55,1.116,1.116,0,0,0-.992-1.178m-.062,1.922c-.31.31-.62.372-1.55.372s-.806,0-.62-.744.186-.992,1.24-.992h.5c.31,0,.682,0,.806.434a.93.93,0,0,1-.31.992" transform="translate(-54.901 -23.094)" fill="#292828"/>
      <path id="Path_61" data-name="Path 61" d="M140.7,65.362c-.186-1.364-.434-2.667-.682-4.031,0-.186,0-.434-.31-.434s-.558-.062-.744.248L136.3,65.734a.682.682,0,0,0,.992-.434,1.24,1.24,0,0,1,1.488-.93c1.054.062,1.116,0,1.24,1.116s.248.372.5.372.186-.31.186-.434m-1.24-1.488H138.1l1.24-2.233.31,1.985c.062.186-.062.248-.248.248" transform="translate(-51.773 -23.129)" fill="#292828"/>
      <path id="Path_62" data-name="Path 62" d="M187.241,65.452c-.248-1.3-.434-2.6-.682-3.907-.062-.186.062-.5-.31-.558a.645.645,0,0,0-.806.372l-2.357,4.093c-.062.124-.186.248-.186.372s.744,0,.93-.434.558-1.116,1.364-.93.868-.124,1.178.062.186.682.248,1.054.248.31.5.31.186-.248.186-.434m-1.24-1.488H184.7l1.24-2.233.31,1.984c.062.186-.062.248-.248.248" transform="translate(-69.473 -23.158)" fill="#292828"/>
      <path id="Path_63" data-name="Path 63" d="M194.951,1.6l-.93,2.543c-.062.186-.062.372-.372.372s-.31-.248-.372-.434a23.746,23.746,0,0,0-.992-2.481V4.018c0,.806.124.5-.248.5s-.248-.31-.248-.5V.979c0-1.054-.124-.434.248-.434s.558-.124.682.31.62,1.8.868,2.667l.124.248c.372-.992.744-1.922,1.054-2.915s.31-.372.62-.372.186.31.186.434V3.956c0,.992.124.434-.248.434s-.31-.186-.31-.434V1.475h-.124" transform="translate(-72.842 -0.111)" fill="#292828"/>
      <path id="Path_64" data-name="Path 64" d="M195.365,61c-.558.744-1.116,1.488-1.674,2.109a3.659,3.659,0,0,0-.868,1.922,3.591,3.591,0,0,0-.062.434c0,.434-.31.372-.558.31s-.186-.31-.124-.434a3.019,3.019,0,0,0-.434-2.977,10.951,10.951,0,0,1-.744-1.426.62.62,0,0,1,.93.372l.992,1.922,1.488-1.922a.93.93,0,0,1,1.178-.372" transform="translate(-72.512 -23.112)" fill="#292828"/>
      <path id="Path_65" data-name="Path 65" d="M159.7,61.182c0,.186-.062.372-.31.372h-.248c-1.178,0-1.178,0-1.426,1.24s-.372,1.8-.558,2.667-.248.434-.558.372-.124-.31-.124-.5c.248-1.116.434-2.295.744-3.411s-.062-.372-.31-.372H156.1c-.124,0-.372.062-.31-.186s.062-.372.372-.372h3.287c.124,0,.372-.062.31.186" transform="translate(-59.174 -23.166)" fill="#292828"/>
      <path id="Path_66" data-name="Path 66" d="M187.55.8h1.24c.124,0,.31,0,.31.186s-.124.248-.31.248a.977.977,0,0,0-.992,1.116V4.331c0,.682.062.434-.248.372s-.248-.248-.248-.434V1.726c0-.806-.062-.558-.5-.5h-.5c-.186,0-.31,0-.31-.248s.124-.186.31-.186h1.24" transform="translate(-70.651 -0.3)" fill="#2a2929"/>
    </g>
  </g>
</svg>
