<svg id="seal" xmlns="http://www.w3.org/2000/svg" xmlns:xlink="http://www.w3.org/1999/xlink" width="59.542" height="59.533" viewBox="0 0 59.542 59.533">
  <defs>
    <linearGradient id="linear-gradient" x1="-0.585" y1="0.627" x2="0.399" y2="0.627" gradientUnits="objectBoundingBox">
      <stop offset="0" stop-color="#3491d1"/>
      <stop offset="1" stop-color="#7ab12d"/>
    </linearGradient>
  </defs>
  <g id="Group_98" data-name="Group 98" transform="translate(7.962 3.919)">
    <g id="Group_87" data-name="Group 87" transform="translate(0 8.693)">
      <path id="Path_854" data-name="Path 854" d="M293.821,410.1l-2.26,3.013-.356-.267,2.26-3.013Zm1.043.941-.691.921a1.13,1.13,0,0,1,.655.249q.769.576.083,1.494-.56.745-1.946.265l.142-.415q1.119.392,1.5-.119.408-.544-.059-.894a.789.789,0,0,0-.371-.149.635.635,0,0,0-.379.063l-.316.42-.356-.266,1.378-1.836Z" transform="translate(-291.057 -409.684)" fill="#7ab12d"/>
      <path id="Path_855" data-name="Path 855" d="M294.329,414.261a2.527,2.527,0,0,1-1.362-.153l-.1-.035.21-.616.1.036c.695.242,1.161.214,1.385-.084a.665.665,0,0,0,.169-.425.447.447,0,0,0-.208-.321.675.675,0,0,0-.32-.129.521.521,0,0,0-.3.043l-.364.485-.525-.394,1.5-2,.525.394-.644.858a1.338,1.338,0,0,1,.524.248c.39.292.724.814.1,1.642A1.185,1.185,0,0,1,294.329,414.261Zm-1.193-.319c.829.266,1.394.179,1.727-.264.425-.568.406-.995-.062-1.346a1.039,1.039,0,0,0-.595-.228l-.2,0,.75-1-.186-.141-1.251,1.667.188.141.287-.366a.73.73,0,0,1,.442-.075.884.884,0,0,1,.42.169.651.651,0,0,1,.291.477.862.862,0,0,1-.21.565c-.273.364-.786.427-1.522.19Zm-1.517-.645-.525-.394,2.388-3.182.524.394Zm-.229-.435.186.141,2.134-2.844-.187-.141Z" transform="translate(-291.094 -409.722)" fill="#7ab12d"/>
    </g>
    <g id="Group_88" data-name="Group 88" transform="translate(2.438 5.679)">
      <path id="Path_856" data-name="Path 856" d="M296.263,407.9l-.612.588,2.236,2.326-.352.34-.687-.714a1.76,1.76,0,0,1-.5.873,1.832,1.832,0,0,1-1.843.275c-.017-.092-.037-.213-.059-.359a.834.834,0,0,0,.254-.165.627.627,0,0,0,.216-.428.565.565,0,0,0-.177-.43.708.708,0,0,0-.363-.181.4.4,0,0,0-.376.054l-.662.637-.309-.321,2.927-2.815Zm.194,2.133-1.16-1.205-.8.767a.836.836,0,0,1,.6.268.952.952,0,0,1,.274.7.935.935,0,0,1-.3.691.9.9,0,0,0,.482-.04,1.165,1.165,0,0,0,.453-.256A1.52,1.52,0,0,0,296.457,410.036Z" transform="translate(-292.877 -407.433)" fill="#7ab12d"/>
      <path id="Path_857" data-name="Path 857" d="M295.762,411.8a2.594,2.594,0,0,1-1.249-.07l-.064-.016-.012-.066c-.019-.094-.039-.216-.06-.363l-.012-.082.075-.032a.742.742,0,0,0,.224-.142.533.533,0,0,0,.183-.359.469.469,0,0,0-.149-.352.615.615,0,0,0-.309-.15c-.094-.02-.218-.033-.281.027l-.738.71-.454-.473,3.08-2.962.454.473-.611.589,2.236,2.326-.5.485-.635-.659a1.866,1.866,0,0,1-.479.746A1.439,1.439,0,0,1,295.762,411.8Zm-1.13-.257a1.707,1.707,0,0,0,1.678-.265,1.65,1.65,0,0,0,.473-.822l.046-.186.747.775.2-.193-2.236-2.326.611-.588-.162-.169-2.775,2.669.162.169.585-.562a.5.5,0,0,1,.473-.082.823.823,0,0,1,.416.21.671.671,0,0,1,.206.508.74.74,0,0,1-.248.5.91.91,0,0,1-.213.15C294.609,411.412,294.62,411.483,294.632,411.543Zm.874-.155a.926.926,0,0,1-.418.009l-.187-.046.139-.134a.83.83,0,0,0,.266-.616.84.84,0,0,0-.245-.625.732.732,0,0,0-.528-.234l-.25-.008,1.055-1.015,1.267,1.319-.007.05a1.631,1.631,0,0,1-.478.987,1.274,1.274,0,0,1-.494.28C295.585,411.368,295.545,411.378,295.506,411.388Zm-.177-.185a1.09,1.09,0,0,0,.233-.05,1.057,1.057,0,0,0,.412-.232,1.41,1.41,0,0,0,.407-.812l-1.05-1.093-.565.545a.946.946,0,0,1,.447.268,1.063,1.063,0,0,1,.3.774A1.036,1.036,0,0,1,295.329,411.2Z" transform="translate(-292.915 -407.471)" fill="#7ab12d"/>
    </g>
    <g id="Group_89" data-name="Group 89" transform="translate(5.518 4.637)">
      <path id="Path_858" data-name="Path 858" d="M296.937,407.158l-.676.513,1.952,2.57-.39.3-1.952-2.57-.277.21-.269-.354,1.343-1.02Z" transform="translate(-295.178 -406.656)" fill="#7ab12d"/>
      <path id="Path_859" data-name="Path 859" d="M297.841,410.722l-1.952-2.57-.277.21-.4-.522,1.51-1.148.4.522-.675.513,1.951,2.57Zm-1.912-2.866,1.952,2.57.222-.169-1.952-2.57.675-.513-.141-.186-1.174.892.142.186Z" transform="translate(-295.215 -406.693)" fill="#7ab12d"/>
    </g>
    <g id="Group_90" data-name="Group 90" transform="translate(6.924 2.753)">
      <path id="Path_860" data-name="Path 860" d="M299.571,405.774l-.979.595.565.932-.518.316a1.588,1.588,0,0,0-.58.508.75.75,0,0,0,.094.779.694.694,0,0,0,.428.328.652.652,0,0,0,.518-.075,1.009,1.009,0,0,0,.344-.366.4.4,0,0,0,.058-.41,1.4,1.4,0,0,0-.162-.169l.355-.349L301,409.131l-.347.358-.758-.728a1,1,0,0,1-.569.8,1.121,1.121,0,0,1-.9.147,1.167,1.167,0,0,1-.724-.56,1.245,1.245,0,0,1-.186-1.012,1.526,1.526,0,0,1,.743-.861l.218-.134-.313-.516-1.569.953-.23-.382,2.967-1.8Z" transform="translate(-296.228 -405.249)" fill="#7ab12d"/>
      <path id="Path_861" data-name="Path 861" d="M300.7,409.674l-.69-.663a1.381,1.381,0,0,1-1.563.833,1.28,1.28,0,0,1-.789-.607,1.356,1.356,0,0,1-.2-1.1,1.646,1.646,0,0,1,.79-.923l.129-.078-.2-.336-1.569.953-.34-.561,3.147-1.911.341.561-.98.595.566.932-.609.37a1.508,1.508,0,0,0-.542.469.653.653,0,0,0,.091.675.589.589,0,0,0,.366.279.539.539,0,0,0,.437-.063.89.89,0,0,0,.308-.328c.054-.092.107-.221.059-.3a1.784,1.784,0,0,0-.145-.147l-.079-.075.506-.5,1.46,1.414Zm-.856-1.114.85.817.2-.206-1.16-1.124-.2.2a.621.621,0,0,1,.1.115.5.5,0,0,1-.056.516,1.106,1.106,0,0,1-.38.4.755.755,0,0,1-.6.087A.806.806,0,0,1,298.1,409a.854.854,0,0,1-.1-.885,1.672,1.672,0,0,1,.617-.548l.428-.26-.565-.932.979-.595-.122-.2-2.787,1.693.122.2,1.569-.952.423.7-.309.188a1.434,1.434,0,0,0-.7.8,1.143,1.143,0,0,0,.174.931,1.069,1.069,0,0,0,.662.512,1.014,1.014,0,0,0,.814-.135.9.9,0,0,0,.518-.712Z" transform="translate(-296.265 -405.286)" fill="#7ab12d"/>
    </g>
    <g id="Group_91" data-name="Group 91" transform="translate(10.007 2.041)">
      <path id="Path_862" data-name="Path 862" d="M300.386,405.262l-.767.361L301,408.541l-.443.209-1.378-2.917-.315.149-.19-.4,1.525-.72Z" transform="translate(-298.531 -404.718)" fill="#7ab12d"/>
      <path id="Path_863" data-name="Path 863" d="M300.541,408.927l-1.378-2.917-.315.147-.281-.593,1.715-.81.28.594-.767.362,1.379,2.918Zm-1.277-3.2,1.378,2.918.252-.119-1.378-2.918.767-.363-.1-.212-1.334.631.1.212Z" transform="translate(-298.567 -404.754)" fill="#7ab12d"/>
    </g>
    <g id="Group_92" data-name="Group 92" transform="translate(14.715)">
      <path id="Path_864" data-name="Path 864" d="M306.752,403.322l.083.438-2.147.4.218,1.162a1.909,1.909,0,0,1,.163-.183,1.094,1.094,0,0,1,.161-.131.794.794,0,0,1,.17-.09,1.245,1.245,0,0,1,.193-.052.956.956,0,0,1,.375,0,.757.757,0,0,1,.309.139.852.852,0,0,1,.23.264,1.162,1.162,0,0,1,.134.375,1.346,1.346,0,0,1,.02.295,1.674,1.674,0,0,1-.042.3,1.911,1.911,0,0,1-.088.281,1.671,1.671,0,0,1-.123.245l-.367-.313a.867.867,0,0,0,.078-.158,1.465,1.465,0,0,0,.06-.193,1.258,1.258,0,0,0,.032-.2.705.705,0,0,0-.007-.179.52.52,0,0,0-.094-.228.488.488,0,0,0-.151-.134.469.469,0,0,0-.169-.058.453.453,0,0,0-.149,0,.609.609,0,0,0-.2.068.74.74,0,0,0-.157.121,1.332,1.332,0,0,0-.141.165c-.046.063-.092.13-.143.2l.277,1.477-.481.09-.218-1.161c-.037.039-.084.083-.139.131a1.669,1.669,0,0,1-.182.142,1.485,1.485,0,0,1-.213.122,1,1,0,0,1-.234.078,1.111,1.111,0,0,1-.466,0,.853.853,0,0,1-.333-.155.81.81,0,0,1-.214-.254,1,1,0,0,1-.106-.293.853.853,0,0,1,.007-.364.794.794,0,0,1,.153-.311.929.929,0,0,1,.281-.238,1.246,1.246,0,0,1,.39-.141,1.442,1.442,0,0,1,.273-.025,1.977,1.977,0,0,1,.232.016,1.481,1.481,0,0,1,.186.036c.054.013.1.025.138.033l-.149-.787-1.948.366-.083-.438Zm-2.306,2.2c-.036-.012-.082-.028-.135-.048a1.151,1.151,0,0,0-.187-.051,1.5,1.5,0,0,0-.234-.027,1.246,1.246,0,0,0-.281.023q-.518.1-.445.494a.453.453,0,0,0,.2.324.51.51,0,0,0,.371.054.663.663,0,0,0,.217-.087,1.607,1.607,0,0,0,.21-.147,2.512,2.512,0,0,0,.185-.171l.141-.149Z" transform="translate(-302.052 -403.199)" fill="#7ab12d"/>
      <path id="Path_865" data-name="Path 865" d="M305.437,407.449l-.688.129-.2-1.075h0a2.062,2.062,0,0,1-.192.15,1.633,1.633,0,0,1-.228.131,1.1,1.1,0,0,1-.261.084,1.225,1.225,0,0,1-.509,0,.975.975,0,0,1-.374-.175.883.883,0,0,1-.242-.287,1.125,1.125,0,0,1-.118-.325.973.973,0,0,1,.008-.408.915.915,0,0,1,.173-.351,1.059,1.059,0,0,1,.311-.265,1.333,1.333,0,0,1,.423-.151,1.455,1.455,0,0,1,.295-.028,2.142,2.142,0,0,1,.244.017c.066.009.123.02.177.032l-.1-.522-1.948.366-.122-.645,4.784-.9.121.645-2.145.4.158.845.027-.025a1.3,1.3,0,0,1,.175-.145.9.9,0,0,1,.191-.1,1.206,1.206,0,0,1,.21-.059,1.087,1.087,0,0,1,.416,0,.86.86,0,0,1,.352.158.984.984,0,0,1,.257.295,1.274,1.274,0,0,1,.146.408,1.352,1.352,0,0,1,.021.32,1.745,1.745,0,0,1-.043.315,1.925,1.925,0,0,1-.094.3,1.747,1.747,0,0,1-.131.26l-.064.1-.532-.453.051-.078a.827.827,0,0,0,.068-.138,1.2,1.2,0,0,0,.055-.179,1.087,1.087,0,0,0,.029-.183.562.562,0,0,0-.005-.153.407.407,0,0,0-.074-.182.362.362,0,0,0-.118-.106.349.349,0,0,0-.131-.046.408.408,0,0,0-.115,0,.5.5,0,0,0-.163.058.633.633,0,0,0-.137.1,1.232,1.232,0,0,0-.129.151c-.037.052-.076.107-.116.166Zm-.52-.118.273-.051-.265-1.415.024-.036c.051-.075.1-.143.145-.206a1.263,1.263,0,0,1,.153-.178.874.874,0,0,1,.178-.137.723.723,0,0,1,.229-.082.587.587,0,0,1,.182,0,.554.554,0,0,1,.206.07.6.6,0,0,1,.183.162.628.628,0,0,1,.114.272.8.8,0,0,1,.009.208,1.519,1.519,0,0,1-.035.217,1.606,1.606,0,0,1-.066.206.882.882,0,0,1-.042.1l.2.173c.02-.037.037-.078.055-.119a1.6,1.6,0,0,0,.083-.265,1.585,1.585,0,0,0,.039-.279,1.224,1.224,0,0,0-.019-.27,1.06,1.06,0,0,0-.121-.341.8.8,0,0,0-.2-.232.665.665,0,0,0-.269-.121.873.873,0,0,0-.333,0,1.1,1.1,0,0,0-.174.048.686.686,0,0,0-.149.078.974.974,0,0,0-.146.12,1.892,1.892,0,0,0-.155.173l-.143.181-.28-1.492,2.147-.4-.044-.23-4.369.819.044.23,1.948-.366.2,1.046-.154-.032c-.039-.008-.087-.02-.143-.035a1.611,1.611,0,0,0-.174-.033,1.744,1.744,0,0,0-.218-.015,1.242,1.242,0,0,0-.253.024,1.145,1.145,0,0,0-.356.127.868.868,0,0,0-.25.212.729.729,0,0,0-.134.272.771.771,0,0,0-.005.319.888.888,0,0,0,.1.264.681.681,0,0,0,.186.221.744.744,0,0,0,.293.137,1.012,1.012,0,0,0,.42,0,.831.831,0,0,0,.209-.068,1.434,1.434,0,0,0,.2-.114,2.007,2.007,0,0,0,.171-.134c.052-.046.1-.088.133-.126l.142-.147Zm-1.109-.911-.027.005a.613.613,0,0,1-.445-.067.556.556,0,0,1-.248-.4.456.456,0,0,1,.1-.411.737.737,0,0,1,.43-.2,1.31,1.31,0,0,1,.305-.025,1.562,1.562,0,0,1,.25.029,1.367,1.367,0,0,1,.2.055l.131.048.059.019.062.327-.035.039c-.039.042-.087.092-.145.151a2.232,2.232,0,0,1-.193.178,1.646,1.646,0,0,1-.224.158A.766.766,0,0,1,303.809,406.421Zm-.2-.856a.5.5,0,0,0-.264.129.258.258,0,0,0-.05.232.35.35,0,0,0,.15.253.4.4,0,0,0,.3.04.555.555,0,0,0,.183-.072,1.662,1.662,0,0,0,.2-.139,2.3,2.3,0,0,0,.177-.162l.1-.11-.02-.1-.079-.029a1.274,1.274,0,0,0-.17-.047,1.33,1.33,0,0,0-.218-.024,1.045,1.045,0,0,0-.257.021Z" transform="translate(-302.083 -403.23)" fill="#7ab12d"/>
    </g>
    <g id="Group_93" data-name="Group 93" transform="translate(19.479 0.004)">
      <path id="Path_866" data-name="Path 866" d="M307.433,403.761l-.848.048.183,3.222-.489.028-.183-3.222-.347.02-.025-.445,1.683-.1Z" transform="translate(-305.613 -403.205)" fill="#7ab12d"/>
      <path id="Path_867" data-name="Path 867" d="M306.908,407.158l-.7.04-.182-3.222-.348.02-.036-.656,1.893-.107.038.655-.848.048Zm-.5-.182.278-.016-.183-3.222.846-.048-.013-.234-1.472.084.013.233.347-.019Z" transform="translate(-305.641 -403.233)" fill="#7ab12d"/>
    </g>
    <g id="Group_94" data-name="Group 94" transform="translate(24.345 0.094)">
      <path id="Path_868" data-name="Path 868" d="M312.966,404.454l-.836-.146-.557,3.178-.482-.084.143-.819a1.488,1.488,0,0,1-.254.106,1.531,1.531,0,0,1-.25.051,1.5,1.5,0,0,1-.245.007,2.177,2.177,0,0,1-.242-.029,1.017,1.017,0,0,1-.4-.158,1.056,1.056,0,0,1-.3-.289,1.127,1.127,0,0,1-.165-.383,1.079,1.079,0,0,1-.008-.435,1,1,0,0,1,.163-.4,1.019,1.019,0,0,1,.307-.284,1.187,1.187,0,0,1,.415-.146,1.443,1.443,0,0,1,.485.008,1.55,1.55,0,0,1,.258.067,2.047,2.047,0,0,1,.216.094,1.669,1.669,0,0,1,.173.1c.051.033.094.063.129.09l.131-.75-2.244-.394.078-.438,3.562.624Zm-1.524.951c-.046-.036-.1-.074-.155-.112s-.123-.076-.189-.112a1.782,1.782,0,0,0-.2-.1,1.07,1.07,0,0,0-.2-.058.969.969,0,0,0-.432,0,.625.625,0,0,0-.263.138.533.533,0,0,0-.137.2,1.137,1.137,0,0,0-.054.189.605.605,0,0,0,.008.26.636.636,0,0,0,.107.228.655.655,0,0,0,.19.173.711.711,0,0,0,.254.1,1.07,1.07,0,0,0,.344.008,1.493,1.493,0,0,0,.288-.071,1.222,1.222,0,0,0,.213-.1,1.187,1.187,0,0,0,.118-.082Z" transform="translate(-309.248 -403.269)" fill="#7ab12d"/>
      <path id="Path_869" data-name="Path 869" d="M311.685,407.639l-.69-.121.127-.728c-.029.011-.058.021-.087.029a1.486,1.486,0,0,1-.268.055,1.563,1.563,0,0,1-.263.007,1.989,1.989,0,0,1-.254-.029,1.171,1.171,0,0,1-.767-.493,1.227,1.227,0,0,1-.181-.418,1.213,1.213,0,0,1-.009-.477,1.087,1.087,0,0,1,.521-.761,1.25,1.25,0,0,1,.451-.161,1.552,1.552,0,0,1,.521.008,1.7,1.7,0,0,1,.276.072,2.424,2.424,0,0,1,.228.1c.066.035.125.068.178.1l.084-.482-2.244-.394.114-.647,3.77.662-.114.645-.836-.146Zm-.445-.292.273.048.557-3.178.836.146.04-.23-3.353-.588-.042.23,2.244.394-.179,1.026-.138-.106c-.033-.025-.074-.055-.122-.086a1.507,1.507,0,0,0-.163-.094,1.82,1.82,0,0,0-.2-.088,1.449,1.449,0,0,0-.691-.07,1.047,1.047,0,0,0-.376.133.889.889,0,0,0-.275.254.859.859,0,0,0-.146.362,1,1,0,0,0,.007.394,1.009,1.009,0,0,0,.149.345.957.957,0,0,0,.629.4,1.884,1.884,0,0,0,.23.027,1.268,1.268,0,0,0,.458-.053,1.39,1.39,0,0,0,.237-.1l.189-.1Zm-.354-.921c-.044.011-.09.019-.138.025a1.134,1.134,0,0,1-.379-.008.82.82,0,0,1-.292-.11.762.762,0,0,1-.218-.2.742.742,0,0,1-.125-.265.724.724,0,0,1-.011-.3,1.137,1.137,0,0,1,.06-.206.614.614,0,0,1,.163-.24.729.729,0,0,1,.305-.162,1.076,1.076,0,0,1,.479,0,1.1,1.1,0,0,1,.224.064,1.92,1.92,0,0,1,.218.1c.068.038.134.076.2.117s.116.08.163.118l.048.039-.133.757-.029.025a1.391,1.391,0,0,1-.13.091,1.311,1.311,0,0,1-.233.11A1.346,1.346,0,0,1,310.887,406.425Zm-.556-1.271-.02.005a.524.524,0,0,0-.218.113.411.411,0,0,0-.111.159,1.124,1.124,0,0,0-.05.17.529.529,0,0,0,.007.216.548.548,0,0,0,.25.336.606.606,0,0,0,.217.082,1.018,1.018,0,0,0,.311.008,1.434,1.434,0,0,0,.267-.066,1.1,1.1,0,0,0,.194-.092l.078-.051.1-.554c-.031-.023-.063-.046-.1-.068q-.084-.056-.181-.109a1.7,1.7,0,0,0-.193-.088,1.051,1.051,0,0,0-.549-.06Z" transform="translate(-309.275 -403.3)" fill="#7ab12d"/>
    </g>
    <g id="Group_95" data-name="Group 95" transform="translate(27.416 0.795)">
      <path id="Path_870" data-name="Path 870" d="M313.847,404.817l-.815-.236-.9,3.1-.47-.135.9-3.1-.335-.1.125-.429,1.619.469Z" transform="translate(-311.535 -403.791)" fill="#7ab12d"/>
      <path id="Path_871" data-name="Path 871" d="M312.242,407.845l-.674-.194.9-3.1-.333-.1.182-.629,1.823.526-.182.631-.815-.236Zm-.412-.339.268.078.9-3.1.815.236.066-.225-1.417-.41-.066.225.333.1Z" transform="translate(-311.568 -403.824)" fill="#7ab12d"/>
    </g>
    <g id="Group_96" data-name="Group 96" transform="translate(28.984 1.255)">
      <path id="Path_872" data-name="Path 872" d="M316.735,405.989l-1.061-.432-.411,1.011-.562-.229a1.593,1.593,0,0,0-.754-.162.751.751,0,0,0-.57.54.693.693,0,0,0-.005.54.641.641,0,0,0,.368.371,1.006,1.006,0,0,0,.5.059c.2-.024.319-.09.362-.2a1.252,1.252,0,0,0,.04-.23l.491.076-.237,1.808-.493-.064.133-1.043a1,1,0,0,1-.98.019,1.122,1.122,0,0,1-.652-.631,1.183,1.183,0,0,1,.016-.916,1.251,1.251,0,0,1,.7-.753,1.532,1.532,0,0,1,1.134.082l.237.1.228-.558-1.7-.691.167-.412,3.216,1.307Z" transform="translate(-312.712 -404.132)" fill="#7ab12d"/>
      <path id="Path_873" data-name="Path 873" d="M315.013,409.3l-.7-.094.12-.948a1.383,1.383,0,0,1-1.6-.758,1.281,1.281,0,0,1,.016-.994,1.361,1.361,0,0,1,.763-.813,1.64,1.64,0,0,1,1.212.083l.139.058.147-.364-1.7-.691.248-.608,3.411,1.387-.246.608-1.062-.433-.411,1.011-.659-.269a1.518,1.518,0,0,0-.7-.155c-.21.029-.37.183-.489.475a.586.586,0,0,0-.005.461.537.537,0,0,0,.311.312.886.886,0,0,0,.446.051c.109-.012.242-.046.277-.133a1.486,1.486,0,0,0,.034-.2l.013-.107.7.108Zm-.466-.275.284.038.21-1.6-.284-.044a.829.829,0,0,1-.031.149.5.5,0,0,1-.449.264,1.1,1.1,0,0,1-.552-.066.748.748,0,0,1-.427-.428.806.806,0,0,1,.007-.619.853.853,0,0,1,.655-.605,1.662,1.662,0,0,1,.807.169l.465.189.41-1.01,1.062.431.088-.217-3.021-1.228-.088.217,1.7.691-.307.755-.335-.137a1.444,1.444,0,0,0-1.056-.082,1.147,1.147,0,0,0-.643.695,1.067,1.067,0,0,0-.016.836,1.011,1.011,0,0,0,.593.573.9.9,0,0,0,.882-.008l.193-.13Z" transform="translate(-312.739 -404.167)" fill="#7ab12d"/>
    </g>
    <g id="Group_97" data-name="Group 97" transform="translate(31.67 2.646)">
      <path id="Path_874" data-name="Path 874" d="M317.551,406.5l-.749-.4-1.518,2.847-.432-.23,1.518-2.847-.307-.165.21-.392,1.488.794Z" transform="translate(-314.709 -405.17)" fill="#7ab12d"/>
      <path id="Path_875" data-name="Path 875" d="M315.362,409.125l-.617-.329,1.518-2.847-.307-.163.309-.58,1.672.893-.309.58-.747-.4Zm-.332-.416.245.131,1.52-2.847.749.4.11-.206-1.3-.694-.11.206.307.163Z" transform="translate(-314.745 -405.206)" fill="#7ab12d"/>
    </g>
  </g>
  <g id="Group_113" data-name="Group 113">
    <g id="Group_103" data-name="Group 103" transform="translate(16.896 20.187)">
      <g id="Group_102" data-name="Group 102">
        <g id="Group_99" data-name="Group 99">
          <path id="Path_876" data-name="Path 876" d="M297.766,417.12l7.173-1.655c1.958-.3,4.878.019,7.287,3.49l-3.3.763a4.235,4.235,0,0,0-3.278-1.293c-1.9.311-4.813,1.038-4.813,1.038A3.138,3.138,0,0,1,297.766,417.12Z" transform="translate(-297.766 -415.379)" fill="#7ab12d"/>
        </g>
        <g id="Group_100" data-name="Group 100" transform="translate(3.19 7.743)">
          <path id="Path_877" data-name="Path 877" d="M309.219,421.916l3.275-.755a7.441,7.441,0,0,1-1.189,3.6c-1.192,1.908-2.219,2.156-2.219,2.156a1.277,1.277,0,0,0-.273,1.4,7.989,7.989,0,0,0,1.715,1.654l5.238,4.606s-.664.344-3.06.087-4.755-2.741-4.755-2.741-3.056-3.536-5.826-2.945l-1.914.418a3.059,3.059,0,0,1,1.95-3.532l4.219-.99A4.132,4.132,0,0,0,309.219,421.916Z" transform="translate(-300.148 -421.161)" fill="#7ab12d"/>
        </g>
      </g>
    </g>
    <g id="Group_112" data-name="Group 112">
      <path id="Path_879" data-name="Path 879" d="M311.132,418.636a2.66,2.66,0,0,1,.609,2.638l-8.81,2.033s-1.327-.208-1.5-1.006a1.576,1.576,0,0,1,.8-1.612Z" transform="translate(-279.638 -394.087)" fill="#3491d1"/>
      <g id="Group_104" data-name="Group 104" transform="translate(31.929 17.321)">
        <g id="Path_880" data-name="Path 880" transform="translate(-308.992 -411.952)" fill="#3491d1" stroke-miterlimit="10">
          <path d="M 311.0194702148438 423.4054870605469 C 310.6899719238281 423.4054870605469 310.4179077148438 423.2613830566406 310.2327575683594 422.98876953125 C 310.1318054199219 422.8360290527344 310.1097106933594 422.6467590332031 310.1718444824219 422.4798583984375 C 310.386474609375 421.8844604492188 310.9356079101563 419.8072509765625 308.9525451660156 418.1793518066406 C 308.8144836425781 418.0673828125 308.7373352050781 417.9004821777344 308.7420959472656 417.7223510742188 C 308.757080078125 417.2138366699219 309.0967102050781 416.86376953125 309.6506042480469 416.7851867675781 C 309.6756286621094 416.7816162109375 309.7017517089844 416.77978515625 309.7280578613281 416.77978515625 C 310.2783813476563 416.77978515625 310.9767761230469 417.5909423828125 311.4248046875 418.3948364257813 C 311.7747192382813 419.0227355957031 312.8250732421875 421.2192993164063 311.6484069824219 423.1217346191406 C 311.5690612792969 423.2469787597656 311.4467163085938 423.3345947265625 311.3024291992188 423.3706970214844 C 311.2059326171875 423.3939819335938 311.1114501953125 423.4054870605469 311.0194702148438 423.4054870605469 Z" stroke="none"/>
          <path d="M 309.7280883789063 417.02978515625 C 309.7135620117188 417.02978515625 309.6993713378906 417.03076171875 309.6856994628906 417.03271484375 C 309.1004943847656 417.11572265625 308.9987487792969 417.5000610351563 308.9920043945313 417.7290344238281 C 308.9893188476563 417.8294982910156 309.0335388183594 417.9231567382813 309.1111755371094 417.9861145019531 C 311.2496948242188 419.7416381835938 310.6069641113281 422.0100402832031 310.4061279296875 422.5671081542969 C 310.3712463378906 422.6607971191406 310.3847045898438 422.7652587890625 310.4395751953125 422.8482971191406 C 310.6056823730469 423.0928649902344 310.83154296875 423.1554870605469 311.0194702148438 423.1554870605469 C 311.104248046875 423.1554870605469 311.1813354492188 423.1427307128906 311.24169921875 423.1282043457031 C 311.322021484375 423.1080932617188 311.3916625976563 423.0598754882813 311.435791015625 422.990234375 C 312.9689636230469 420.5113525390625 310.6011962890625 417.02978515625 309.7280883789063 417.02978515625 M 309.7280578613281 416.52978515625 C 310.4237060546875 416.52978515625 311.1734619140625 417.4303588867188 311.6431579589844 418.2731323242188 C 312.0098876953125 418.9311218261719 313.109375 421.2348937988281 311.8610229492188 423.2532348632813 L 311.8595886230469 423.2555541992188 L 311.858154296875 423.2578430175781 C 311.7457580566406 423.4352416992188 311.5699462890625 423.5614624023438 311.3631286621094 423.6132202148438 C 311.2453002929688 423.6416320800781 311.1311340332031 423.6554870605469 311.0194702148438 423.6554870605469 C 310.6092834472656 423.6554870605469 310.2564392089844 423.4685974121094 310.0259399414063 423.1292419433594 L 310.024169921875 423.1265869140625 L 310.0223999023438 423.1239318847656 C 309.8801879882813 422.9087219238281 309.8480224609375 422.63720703125 309.93603515625 422.3967895507813 C 310.1376953125 421.8369445800781 310.6496276855469 419.8959350585938 308.7939147949219 418.37255859375 C 308.5961608886719 418.2122192382813 308.4853515625 417.9721069335938 308.4921875 417.7156982421875 C 308.5067749023438 417.2204284667969 308.8095092773438 416.6519775390625 309.615478515625 416.5376586914063 C 309.6519775390625 416.532470703125 309.6900024414063 416.52978515625 309.7280578613281 416.52978515625 Z" stroke="none" fill="#fff"/>
        </g>
        <g id="Path_881" data-name="Path 881" transform="translate(-308.552 -412.341)" fill="#3491d1" stroke-miterlimit="10">
          <path d="M 312.6189270019531 424.4826049804688 C 312.4230651855469 424.4826049804688 311.9572448730469 424.4053344726563 311.8617553710938 423.6895446777344 C 311.8261108398438 423.4213256835938 311.9052734375 423.1083984375 312.0054931640625 422.7121887207031 C 312.3271179199219 421.4405822753906 312.8132019042969 419.5189514160156 310.1429748535156 416.9803161621094 L 310.1403198242188 416.9778137207031 L 310.1377563476563 416.9752502441406 L 310.1084594726563 416.9457397460938 L 310.0889892578125 416.906982421875 C 310.0260620117188 416.77734375 310.0350036621094 416.5620727539063 310.0535888671875 416.4043579101563 L 310.0563659667969 416.3806457519531 L 310.0635986328125 416.3578796386719 C 310.0730285644531 416.3282470703125 310.3022766113281 415.6323852539063 311.0076904296875 415.6323852539063 C 311.0398559570313 415.6323852539063 311.0728149414063 415.6339416503906 311.105712890625 415.6369934082031 L 311.10888671875 415.6372985839844 L 311.1120300292969 415.6376647949219 C 311.7183837890625 415.7098693847656 312.6014099121094 416.7123107910156 313.2593994140625 418.075439453125 C 313.7707214355469 419.1346435546875 314.8078308105469 421.8447875976563 313.3989562988281 424.1278991699219 C 313.3407592773438 424.2189331054688 313.2635192871094 424.2890319824219 313.1734313964844 424.3340759277344 C 313.0411987304688 424.4013977050781 312.8360900878906 424.4826049804688 312.6189270019531 424.4826049804688 Z" stroke="none"/>
          <path d="M 311.0076904296875 415.8823852539063 C 310.4770202636719 415.8823852539063 310.3018493652344 416.43359375 310.3018493652344 416.43359375 C 310.3018493652344 416.43359375 310.2696838378906 416.7067260742188 310.3139038085938 416.7978210449219 L 310.3152160644531 416.7991333007813 C 313.8998718261719 420.2070922851563 311.9797058105469 422.6790161132813 312.1095581054688 423.656494140625 C 312.1701049804688 424.1103515625 312.3946228027344 424.2326049804688 312.6189270019531 424.2326049804688 C 312.7916870117188 424.2326049804688 312.9643249511719 424.1600036621094 313.0616149902344 424.1104736328125 C 313.1125793457031 424.0849914550781 313.1553649902344 424.0448303222656 313.1862182617188 423.9966125488281 C 315.1800842285156 420.7654418945313 312.1845703125 416.0171203613281 311.0824890136719 415.8859252929688 C 311.0567626953125 415.8835144042969 311.0318908691406 415.8823852539063 311.0076904296875 415.8823852539063 M 311.0076904296875 415.3823852539063 C 311.047607421875 415.3823852539063 311.0884094238281 415.3843078613281 311.1289672851563 415.3880920410156 L 311.1352844238281 415.388671875 L 311.1415710449219 415.3894348144531 C 311.9469604492188 415.4853210449219 312.8986511230469 416.7529602050781 313.4845581054688 417.9667358398438 C 314.0137634277344 419.0630798339844 315.0855102539063 421.870849609375 313.6117248535156 424.2591857910156 L 313.6095886230469 424.2626647949219 L 313.6073608398438 424.26611328125 C 313.5270385742188 424.3916320800781 313.4156494140625 424.4924621582031 313.2852478027344 424.5576782226563 C 313.1302490234375 424.6365966796875 312.8856506347656 424.7326049804688 312.6189270019531 424.7326049804688 C 312.4147644042969 424.7326049804688 311.7389526367188 424.6597595214844 311.6139526367188 423.7225952148438 C 311.5719604492188 423.4066162109375 311.6605529785156 423.056396484375 311.7631225585938 422.65087890625 C 312.0704956054688 421.4357299804688 312.5349731445313 419.599365234375 309.970703125 417.1614990234375 L 309.9654235839844 417.156494140625 L 309.9603271484375 417.1513366699219 L 309.9017333984375 417.0923156738281 L 309.8641052246094 417.0161743164063 C 309.8373718261719 416.9610900878906 309.7560119628906 416.7935180664063 309.8052978515625 416.3750915527344 L 309.8108825683594 416.3276672363281 L 309.8253479003906 416.2821655273438 C 309.9315490722656 415.9479675292969 310.3000793457031 415.3823852539063 311.0076904296875 415.3823852539063 Z" stroke="none" fill="#fff"/>
        </g>
        <g id="Path_882" data-name="Path 882" transform="translate(-308.159 -412.825)" fill="#3491d1" stroke-miterlimit="10">
          <path d="M 314.2580871582031 425.8385925292969 C 314.0355834960938 425.8385925292969 313.6367797851563 425.7548828125 313.4656066894531 425.1943054199219 C 313.4274597167969 425.0679931640625 313.4364318847656 424.9309997558594 313.4906005859375 424.8077697753906 C 313.6572570800781 424.4332580566406 314.1972961425781 423.0801696777344 314.1683044433594 421.3496704101563 C 314.1312255859375 419.1380920410156 313.1976013183594 417.2264404296875 311.3934020996094 415.6678466796875 C 311.2710266113281 415.5622253417969 311.1994323730469 415.4091796875 311.1970520019531 415.2480773925781 C 311.1938171386719 415.0194396972656 311.2382202148438 414.6981506347656 311.4681396484375 414.4649353027344 C 311.6369018554688 414.2937622070313 311.8688049316406 414.2069702148438 312.1574096679688 414.2069702148438 C 312.2119750976563 414.2069702148438 312.2693786621094 414.2101440429688 312.3280029296875 414.2164611816406 C 312.9382629394531 414.2826232910156 314.0338134765625 415.4969177246094 314.8224487304688 416.9809265136719 C 315.2808837890625 417.8435363769531 315.8580322265625 419.2139587402344 316.0043029785156 420.8439331054688 C 316.1503295898438 422.4710388183594 315.8429565429688 424.0183715820313 315.0907287597656 425.4429626464844 C 315.0372314453125 425.5455322265625 314.9486999511719 425.6319274902344 314.8420104980469 425.6851501464844 C 314.7021484375 425.7550964355469 314.4870910644531 425.8385925292969 314.2580871582031 425.8385925292969 Z" stroke="none"/>
          <path d="M 312.1574096679688 414.4569702148438 C 311.5167236328125 414.4569702148438 311.4432983398438 414.9804077148438 311.447021484375 415.244384765625 C 311.4483642578125 415.3354187011719 311.4885559082031 415.4197387695313 311.5568237304688 415.4786682128906 C 315.9730834960938 419.293701171875 314.0501708984375 424.1652221679688 313.7194519042969 424.9083862304688 C 313.6900024414063 424.9753723144531 313.6832885742188 425.0503540039063 313.7047119140625 425.1213073730469 C 313.8157958984375 425.485107421875 314.0394287109375 425.5885925292969 314.2580871582031 425.5885925292969 C 314.4426879882813 425.5885925292969 314.623779296875 425.5147705078125 314.7304382324219 425.46142578125 C 314.7893676757813 425.4320373535156 314.8389282226563 425.3851623535156 314.8696594238281 425.3262329101563 C 317.6576232910156 420.0462646484375 313.3136901855469 414.5748291015625 312.3013305664063 414.4650268554688 C 312.2503967285156 414.4595642089844 312.2025146484375 414.4569702148438 312.1574096679688 414.4569702148438 M 312.1574096679688 413.9569702148438 C 312.2207641601563 413.9569702148438 312.287109375 413.9606323242188 312.3546447753906 413.9678649902344 C 313.1558227539063 414.0547790527344 314.3134460449219 415.4903869628906 315.043212890625 416.8636169433594 C 315.512451171875 417.74658203125 316.1033020019531 419.1499938964844 316.2532958984375 420.8215942382813 C 316.4037170410156 422.4975891113281 316.0869445800781 424.0917053222656 315.3118286132813 425.5596923828125 C 315.2335510253906 425.709716796875 315.1092834472656 425.8312072753906 314.9535827636719 425.9088745117188 C 314.7898559570313 425.99072265625 314.5358276367188 426.0885925292969 314.2580871582031 426.0885925292969 C 313.7618713378906 426.0885925292969 313.3858642578125 425.7892456054688 313.2265014648438 425.267333984375 C 313.1709289550781 425.083251953125 313.1836242675781 424.8848266601563 313.2617492675781 424.7071228027344 C 313.423583984375 424.3434753417969 313.9464721679688 423.0330505371094 313.9183349609375 421.3538513183594 C 313.8825073242188 419.2164916992188 312.9779968261719 417.3670959472656 311.2299499511719 415.8570251464844 C 311.0536499023438 415.7048645019531 310.9505004882813 415.4841918945313 310.9470825195313 415.2517395019531 C 310.9431762695313 414.9752807617188 310.9994812011719 414.5841979980469 311.2901000976563 414.2894287109375 C 311.4396362304688 414.1377563476563 311.7114868164063 413.9569702148438 312.1574096679688 413.9569702148438 Z" stroke="none" fill="#fff"/>
        </g>
        <g id="Path_883" data-name="Path 883" transform="translate(-307.717 -413.238)" fill="#3491d1" stroke-miterlimit="10">
          <path d="M 316.1560974121094 427.0784912109375 C 315.9073486328125 427.0784912109375 315.3214416503906 426.9821166992188 315.2535705566406 426.0892639160156 C 315.2462463378906 425.9839477539063 315.2662353515625 425.8814697265625 315.3113098144531 425.7911987304688 C 315.4600219726563 425.4857788085938 316.2071838378906 423.8419799804688 316.2034301757813 421.686767578125 C 316.1985778808594 418.9325256347656 315.0192565917969 416.4985961914063 312.6982116699219 414.4525756835938 C 312.5912475585938 414.3598327636719 312.5235290527344 414.2294311523438 312.509033203125 414.0867919921875 C 312.4886474609375 413.906005859375 312.4890441894531 413.558837890625 312.7241821289063 413.2956848144531 C 312.9066467285156 413.0914916992188 313.181884765625 412.9879760742188 313.5423278808594 412.9879760742188 C 314.1524963378906 412.98876953125 315.4244689941406 414.280029296875 316.3808898925781 415.8664245605469 C 317.0166015625 416.9208068847656 317.82568359375 418.6111450195313 318.0702209472656 420.6760559082031 C 318.3192138671875 422.7787475585938 317.9353332519531 424.8143615722656 316.9292602539063 426.7263488769531 C 316.8605651855469 426.8564453125 316.7459716796875 426.953125 316.6063842773438 426.9988403320313 C 316.5014343261719 427.03466796875 316.3352966308594 427.0784912109375 316.1560974121094 427.0784912109375 Z" stroke="none"/>
          <path d="M 313.5423278808594 413.2379760742188 C 312.7590637207031 413.2379760742188 312.7283325195313 413.8006591796875 312.7577514648438 414.0615234375 C 312.7657775878906 414.1404724121094 312.8032836914063 414.2127990722656 312.863525390625 414.2650451660156 C 318.5251159667969 419.2557373046875 315.8844909667969 425.1851806640625 315.5349731445313 425.9028930664063 C 315.5095520019531 425.9537963867188 315.4988403320313 426.0127258300781 315.5028381347656 426.0703125 C 315.5494689941406 426.6834411621094 315.8666687011719 426.8284912109375 316.1560974121094 426.8284912109375 C 316.2990112304688 426.8284912109375 316.4351501464844 426.7931213378906 316.528564453125 426.7612609863281 C 316.6062622070313 426.7358093261719 316.6705322265625 426.680908203125 316.7080078125 426.6099243164063 C 320.3395690917969 419.7083740234375 314.5628356933594 413.2393188476563 313.5451354980469 413.2379760742188 C 313.544189453125 413.2379760742188 313.5432739257813 413.2379760742188 313.5423278808594 413.2379760742188 M 313.5423278808594 412.7379760742188 L 313.5451354980469 412.7379760742188 C 314.3524169921875 412.7390441894531 315.7188415527344 414.2841186523438 316.5950012207031 415.7373352050781 C 317.2433776855469 416.8127746582031 318.0687255859375 418.5375061035156 318.3184814453125 420.6466674804688 C 318.5735168457031 422.8005065917969 318.1805419921875 424.8851623535156 317.1504821777344 426.8427429199219 C 317.0518493652344 427.0296325683594 316.8877868652344 427.1686706542969 316.6879577636719 427.2351684570313 C 316.5621643066406 427.2779235839844 316.368408203125 427.3284912109375 316.1560974121094 427.3284912109375 C 315.9076538085938 427.3284912109375 315.0903625488281 427.2405090332031 315.0042724609375 426.1082153320313 C 314.9937438964844 425.956787109375 315.0226440429688 425.8096923828125 315.087646484375 425.6795349121094 C 315.2310485839844 425.385009765625 315.9570922851563 423.787353515625 315.9534301757813 421.6871948242188 C 315.94873046875 419.0076904296875 314.7978820800781 416.63671875 312.5328979492188 414.64013671875 C 312.3798828125 414.5074157714844 312.2821960449219 414.3200988769531 312.2606201171875 414.1149597167969 C 312.217529296875 413.7274169921875 312.31591796875 413.3773803710938 312.5377807617188 413.1290893554688 C 312.6972045898438 412.95068359375 313.0009155273438 412.7379760742188 313.5423278808594 412.7379760742188 Z" stroke="none" fill="#fff"/>
        </g>
      </g>
      <g id="Group_105" data-name="Group 105">
        <path id="Path_884" data-name="Path 884" d="M321.61,459.073a29.792,29.792,0,0,1-33.9-16.918l-.155-.349,11.015-2.542.117.2a18.757,18.757,0,0,0,34.939-8.06l.016-.234,11.014-2.54.013.383A29.786,29.786,0,0,1,321.61,459.073Zm-33.162-16.824a29.139,29.139,0,0,0,55.6-12.827l-9.809,2.263a19.55,19.55,0,0,1-4.506,10.884,19.387,19.387,0,0,1-22.657,5.228,19.556,19.556,0,0,1-8.818-7.811Zm53.831-23.916-11.014,2.542-.116-.2a18.754,18.754,0,0,0-34.934,8.059l-.017.234-11.015,2.54-.013-.383a29.769,29.769,0,0,1,56.955-13.139Zm-10.7,1.82,9.809-2.263a29.138,29.138,0,0,0-55.6,12.827l9.811-2.264a19.54,19.54,0,0,1,4.5-10.883,19.388,19.388,0,0,1,22.654-5.226A19.556,19.556,0,0,1,331.578,420.153Z" transform="translate(-285.148 -400.303)" fill="url(#linear-gradient)"/>
      </g>
      <g id="Group_106" data-name="Group 106" transform="translate(3.686 22.968)">
        <path id="Path_885" data-name="Path 885" d="M288.076,418.948l1.057-.285.365-1.032.6.918,1.094.028-.688.852.312,1.05-1.023-.391-.9.621.056-1.093Z" transform="translate(-287.842 -417.395)" fill="#66a471"/>
        <path id="Path_886" data-name="Path 886" d="M291.034,420.713l-1.17-.447-1.032.71.064-1.252-.995-.762,1.211-.325.418-1.181.683,1.05,1.253.032-.787.975Zm-1.2-.684.874.335-.266-.9.589-.728-.936-.024-.512-.785-.312.884-.905.242.743.57-.047.935Z" transform="translate(-287.901 -417.455)" fill="#66a471"/>
      </g>
      <g id="Group_107" data-name="Group 107" transform="translate(47.529 12.971)">
        <path id="Path_887" data-name="Path 887" d="M323.772,410.7l-.481.984.538.954-1.084-.153-.741.806-.189-1.078-1-.455.967-.513.125-1.088.787.761Z" transform="translate(-320.582 -409.933)" fill="#66a471"/>
        <path id="Path_888" data-name="Path 888" d="M322,413.577l-.217-1.233-1.14-.522,1.106-.586.145-1.245.9.872,1.229-.249-.55,1.126.615,1.091-1.24-.175Zm-.88-1.769.852.39.162.923.633-.69.927.131-.459-.817.411-.841-.919.185-.672-.651-.108.931Z" transform="translate(-320.642 -409.99)" fill="#66a471"/>
      </g>
      <g id="Group_108" data-name="Group 108" transform="translate(8.554 42.959)">
        <path id="Path_889" data-name="Path 889" d="M291.739,435.143l.482-.983-.537-.954,1.084.154.742-.805.188,1.079,1,.456-.968.512-.126,1.087-.786-.762Z" transform="translate(-291.486 -432.326)" fill="#66a471"/>
        <path id="Path_890" data-name="Path 890" d="M293.728,435.971l-.9-.872-1.228.246.552-1.125-.616-1.093,1.241.177.849-.921.216,1.233,1.138.522-1.107.586Zm-1.75-.916.919-.185.672.652.107-.931.829-.439-.852-.39-.161-.923-.635.69-.928-.133.459.817Z" transform="translate(-291.536 -432.384)" fill="#66a471"/>
      </g>
      <g id="Group_109" data-name="Group 109" transform="translate(51.906 33.483)">
        <path id="Path_891" data-name="Path 891" d="M327.2,427.24l-1.064.259-.39,1.023-.575-.932-1.093-.055.708-.835-.286-1.057,1.013.416.917-.6-.083,1.092Z" transform="translate(-323.856 -425.256)" fill="#66a471"/>
        <path id="Path_892" data-name="Path 892" d="M325.82,428.812l-.657-1.067-1.252-.063.811-.955-.328-1.209,1.16.475,1.05-.686-.1,1.251.976.786-1.219.3Zm-1.472-1.319.936.047.491.8.334-.876.909-.221-.728-.588.07-.933-.783.512-.866-.355.245.9Z" transform="translate(-323.911 -425.308)" fill="#66a471"/>
      </g>
      <g id="Group_111" data-name="Group 111" transform="translate(14.323 39.291)">
        <g id="Group_110" data-name="Group 110">
          <path id="Path_893" data-name="Path 893" d="M301.492,439.305c-.388-.194-.582-.3-.966-.51l-1.369,2.467c-.34-.19-.509-.289-.845-.494l.814-1.343c-.189-.115-.283-.174-.469-.293a.9.9,0,0,1-.146.455.7.7,0,0,1-.305.27.913.913,0,0,1-.431.074,1.653,1.653,0,0,1-.524-.127,2.728,2.728,0,0,1-.581-.331,2.013,2.013,0,0,1-.718-2.341c.309.167.465.246.774.4a2.479,2.479,0,0,0-.088.516,1.493,1.493,0,0,0,.034.42,1.008,1.008,0,0,0,.141.328.968.968,0,0,0,.233.24,1.138,1.138,0,0,0,.226.131.659.659,0,0,0,.21.054.4.4,0,0,0,.179-.024.275.275,0,0,0,.133-.106.43.43,0,0,0,.068-.269.573.573,0,0,0-.09-.287c-.253-.18-.379-.272-.628-.461l.37-.489a19.647,19.647,0,0,0,1.93,1.316l.331-.545a19.288,19.288,0,0,1-3.1-2.275l.4-.461a18.519,18.519,0,0,0,4.691,3.136Z" transform="translate(-295.844 -427.619)" fill="#3491d1"/>
          <path id="Path_894" data-name="Path 894" d="M301.978,439.27c-.292-.117-.438-.178-.726-.305-.454,1.034-.682,1.549-1.135,2.583-.351-.155-.525-.237-.873-.406l1.232-2.537c-.139-.068-.209-.1-.348-.174l.276-.545a18.311,18.311,0,0,0,1.8.817Z" transform="translate(-294.691 -426.851)" fill="#3491d1"/>
          <path id="Path_895" data-name="Path 895" d="M304.692,441.645a19.777,19.777,0,0,1-2.046-.54.727.727,0,0,1-.181.1.7.7,0,0,1-.217.042c.3.5.463.751.8,1.243-.321.087-.483.127-.813.2a19.985,19.985,0,0,1-1.438-2.465c.32-.054.478-.083.79-.147.1.2.157.3.264.5.173.045.327-.13.459-.52l.2-.576c-.514-.177-.77-.273-1.277-.482l.232-.565a18.006,18.006,0,0,0,3.827,1.177l-.126.6a18.916,18.916,0,0,1-1.855-.471l-.175.582c-.015.051-.031.1-.046.146a1.158,1.158,0,0,1-.047.125c.707.213,1.063.3,1.778.459Z" transform="translate(-294.163 -426.666)" fill="#3491d1"/>
          <path id="Path_896" data-name="Path 896" d="M308.545,440.393c-.367,0-.55-.008-.916-.027-.059,1.128-.088,1.69-.147,2.817-.37-.019-.554-.032-.924-.063l.135-1.531c-.572-.05-.858-.083-1.427-.167a.633.633,0,0,0-.384.042.326.326,0,0,0-.175.246.679.679,0,0,0,.209.558c.02.023.087.087.2.193s.283.252.506.435c-.307.137-.462.2-.778.332-.8-.69-1.1-1.26-1.022-1.655a.958.958,0,0,1,.173-.39.94.94,0,0,1,.315-.264,1.273,1.273,0,0,1,.43-.13,1.947,1.947,0,0,1,.533.013c.588.088.882.123,1.473.175l.06-.668a18.751,18.751,0,0,1-2.884-.439l.131-.6a18.234,18.234,0,0,0,4.5.508Z" transform="translate(-293.143 -426.38)" fill="#3491d1"/>
          <path id="Path_897" data-name="Path 897" d="M309.517,440.576c-.3.02-.453.028-.755.039.036,1.126.054,1.69.088,2.817-.368.012-.553.016-.923.015l.013-2.82c-.15,0-.225,0-.375,0l.012-.611.3,0c-.047-.059-.1-.121-.154-.185s-.111-.126-.166-.185-.11-.115-.162-.169-.1-.1-.149-.142a1.177,1.177,0,0,0-.126-.1.21.21,0,0,0-.092-.039.421.421,0,0,0-.214.039.157.157,0,0,0-.092.135,2.052,2.052,0,0,0,.4.668c-.238.114-.36.17-.605.277a1.8,1.8,0,0,1-.478-1.036.711.711,0,0,1,.094-.3.7.7,0,0,1,.2-.224.878.878,0,0,1,.3-.135,1.242,1.242,0,0,1,.382-.035.807.807,0,0,1,.225.043.929.929,0,0,1,.208.1,1.691,1.691,0,0,1,.206.155c.07.059.143.127.221.2.021.02.052.051.091.091l.134.137.161.165.17.178c.056.059.112.118.165.177s.1.112.143.163c.3-.009.446-.017.743-.037Z" transform="translate(-292.391 -426.612)" fill="#3491d1"/>
          <path id="Path_898" data-name="Path 898" d="M315.577,438.807c-.366.161-.55.237-.921.382l1.026,2.626c-.344.133-.517.2-.865.317l-.216-.615a2.006,2.006,0,0,1-.383.277,2.324,2.324,0,0,1-.438.186,2.407,2.407,0,0,1-.591.1,1.6,1.6,0,0,1-.5-.055.967.967,0,0,1-.368-.194.6.6,0,0,1-.19-.315.762.762,0,0,1,.07-.509c-.292.072-.438.107-.731.171l-.13-.6a19.5,19.5,0,0,0,2.213-.6l.189.58c-.232.075-.348.111-.581.181-.185.222-.264.394-.229.517.062.22.293.274.692.151a1.07,1.07,0,0,0,.19-.082,2.227,2.227,0,0,0,.213-.131c.07-.05.137-.1.2-.158a1.465,1.465,0,0,0,.157-.165l-.493-1.41a19.085,19.085,0,0,1-2.947.81l-.122-.6a18.6,18.6,0,0,0,4.511-1.434Z" transform="translate(-290.767 -426.728)" fill="#3491d1"/>
          <path id="Path_899" data-name="Path 899" d="M314.232,438.671c-.118.181-.177.271-.3.45a16.433,16.433,0,0,1-2.007-.639c.142-.217.21-.325.341-.545A16.437,16.437,0,0,0,314.232,438.671Z" transform="translate(-290.392 -426.833)" fill="#3491d1"/>
          <path id="Path_900" data-name="Path 900" d="M319.884,435.8c-.284.26-.428.386-.72.632.726.864,1.089,1.295,1.814,2.16-.288.241-.434.359-.73.588l-.378-.483a1.983,1.983,0,0,1-.305.39,3.074,3.074,0,0,1-.376.316,1.732,1.732,0,0,1-.512.257,1.481,1.481,0,0,1-.506.066,1.046,1.046,0,0,1-.437-.118.807.807,0,0,1-.311-.289.783.783,0,0,1-.126-.41,1.057,1.057,0,0,1,.087-.439,1.612,1.612,0,0,1,.272-.435,2.49,2.49,0,0,1,.438-.4,2.635,2.635,0,0,1,.358-.224,3.21,3.21,0,0,1,.309-.138l-.248-.317a18.552,18.552,0,0,1-2.018,1.4l-.321-.52a18.128,18.128,0,0,0,3.3-2.484Zm-.735,1.97c-.054.016-.111.036-.171.06s-.123.047-.186.075-.122.056-.181.087a1.464,1.464,0,0,0-.158.1,1.657,1.657,0,0,0-.218.185.882.882,0,0,0-.127.165.449.449,0,0,0-.054.147.437.437,0,0,0,0,.125.293.293,0,0,0,.028.1c.015.028.028.054.042.074a.346.346,0,0,0,.139.116.485.485,0,0,0,.189.04.656.656,0,0,0,.218-.037.869.869,0,0,0,.222-.118,1.253,1.253,0,0,0,.228-.2,1.663,1.663,0,0,0,.162-.213,1.273,1.273,0,0,0,.1-.191c.024-.058.042-.107.054-.145Z" transform="translate(-288.951 -427.71)" fill="#3491d1"/>
          <path id="Path_901" data-name="Path 901" d="M322.277,433.074c-.242.344-.368.513-.624.844l2.224,1.734c-.237.305-.359.455-.605.75l-.5-.42a2.143,2.143,0,0,1-.2.449,2.563,2.563,0,0,1-.763.8,1.631,1.631,0,0,1-.473.22.957.957,0,0,1-.422.025.586.586,0,0,1-.327-.173.759.759,0,0,1-.194-.478c-.22.217-.331.323-.557.532l-.415-.449a19.016,19.016,0,0,0,1.652-1.694l.458.4c-.166.19-.252.284-.423.469-.051.292-.033.482.059.572.163.157.4.082.687-.238a1.152,1.152,0,0,0,.127-.174,2.158,2.158,0,0,0,.122-.228q.054-.123.1-.245a1.473,1.473,0,0,0,.056-.228l-1.144-.964a18.414,18.414,0,0,1-2.195,2.267l-.407-.455a18.123,18.123,0,0,0,3.266-3.674Z" transform="translate(-288.158 -428.602)" fill="#3491d1"/>
          <path id="Path_902" data-name="Path 902" d="M323.833,429.883c-.171.4-.261.6-.449.992l2.539,1.225c-.175.364-.266.545-.454.9l-1.348-.718c-.213.4-.323.6-.552.986a.524.524,0,0,1,.13.019.482.482,0,0,1,.131.054c.487.288.552.751.161,1.355a1.544,1.544,0,0,1-.311.356,1.1,1.1,0,0,1-.348.2.769.769,0,0,1-.349.033.7.7,0,0,1-.316-.129c-.478-.343-.455-.858.013-1.6.382-.6.562-.913.9-1.555l-.6-.32a18.9,18.9,0,0,1-1.635,2.637l-.5-.359a18.556,18.556,0,0,0,2.42-4.308Zm-.653,4.551a.194.194,0,0,0,.3-.071c.067-.1.032-.2-.1-.287a.3.3,0,0,0-.15-.05.278.278,0,0,0-.151.035.4.4,0,0,0-.023.224A.282.282,0,0,0,323.18,434.435Z" transform="translate(-287.365 -429.645)" fill="#3491d1"/>
        </g>
      </g>
    </g>
  </g>
</svg>
